{
  "A": {
    "1": "55.00",
    "2": "50.00",
    "3": "40.00",
    "4": "35.00",
    "5": "34.00",
    "6": "32.00",
    "7+": "30.00"
  },
  "B": {
    "1": "61.00",
    "2": "55.00",
    "3": "45.00",
    "4": "40.00",
    "5": "38.00",
    "6": "34.00",
    "7+": "32.00"
  },
  "C": {
    "1": "60.00",
    "2": "55.00",
    "3": "50.00",
    "4": "45.00",
    "5": "42.00",
    "6": "40.00",
    "7+": "38.00"
  },
  "D": {
    "1": "71.00",
    "2": "70.00",
    "3": "60.00",
    "4": "55.00",
    "5": "45.00",
    "6": "43.00",
    "7+": "40.00"
  },
  "E": {
    "1": "70.00",
    "2": "65.00",
    "3": "60.00",
    "4": "55.00",
    "5": "50.00",
    "6": "45.00",
    "7+": "43.00"
  },
  "F": {
    "1": "80.00",
    "2": "75.00",
    "3": "70.00",
    "4": "60.00",
    "5": "55.00",
    "6": "50.00",
    "7+": "45.00"
  },
  "H": {
    "1": "90.00",
    "2": "80.00",
    "3": "75.00",
    "4": "65.00",
    "5": "62.00",
    "6": "60.00",
    "7+": "57.00"
  },
  "K": {
    "1": "100.00",
    "2": "99.00",
    "3": "98.00",
    "4": "95.00",
    "5": "90.00",
    "6": "85.00",
    "7+": "80.00"
  },
  "L": {
    "1": "170.00",
    "2": "160.00",
    "3": "150.00",
    "4": "140.00",
    "5": "130.00",
    "6": "120.00",
    "7+": "110.00"
  }
}
